{
   "public": {
     "contentUrl":"https://d83gm0anh9n33.cloudfront.net"
   },
   "google": {
     "calClientKey": "AIzaSyD8aDOU16hMHpzC66I104t9Q_ROh0q4RZk"
   },
   "hiveage": {
     "apiKey": "GT-HyXYtSdvQAqX8kKsm",
     "domain":  "my-rooneychase",
     "hashKey": "M5Kqu6zKPcWOvg",
     "connectionId": 1351947
   },
   "waves": {
    "token": "Hk9gyVYiAbpp9pwkFsJVpzDK0l6PJx",
    "url":  "https://gql.waveapps.com/graphql/public",
    "hashKey": "M5Kqu6zKPcWOvg",
    "businessId": "QnVzaW5lc3M6YjM1ZmY5OWMtMWNjNi00NjdhLTk2YTItODFiOWQ0MjkzZTk3"
  },
   "company": {
     "address": "Some test address",
     "postalCode": "SE99 3YY",
     "city": "London",
     "email": "rooneychasebooking@gmail.com",
     "calendarEmail": "rooneychasebooking@gmail.com"
   }
}
